<?xml version="1.0" encoding="UTF-8" standalone="no"?>
<svg
   width="11in"
   height="8.5in"
   version="1.1"
   viewBox="0 0 279.4 215.9"
   id="svg373"
   sodipodi:docname="Picturing_Parabolas_anchor_chart_no_x-intercepts.svg"
   inkscape:version="1.2.1 (9c6d41e410, 2022-07-14)"
   xmlns:inkscape="http://www.inkscape.org/namespaces/inkscape"
   xmlns:sodipodi="http://sodipodi.sourceforge.net/DTD/sodipodi-0.dtd"
   xmlns="http://www.w3.org/2000/svg"
   xmlns:svg="http://www.w3.org/2000/svg"
   xmlns:rdf="http://www.w3.org/1999/02/22-rdf-syntax-ns#"
   xmlns:cc="http://creativecommons.org/ns#"
   xmlns:dc="http://purl.org/dc/elements/1.1/">
  <sodipodi:namedview
     id="namedview375"
     pagecolor="#ffffff"
     bordercolor="#666666"
     borderopacity="1.0"
     inkscape:showpageshadow="2"
     inkscape:pageopacity="0.0"
     inkscape:pagecheckerboard="0"
     inkscape:deskcolor="#d1d1d1"
     inkscape:document-units="in"
     showgrid="false"
     inkscape:zoom="1.6558997"
     inkscape:cx="529.62145"
     inkscape:cy="352.37641"
     inkscape:window-width="2256"
     inkscape:window-height="1419"
     inkscape:window-x="0"
     inkscape:window-y="0"
     inkscape:window-maximized="1"
     inkscape:current-layer="svg373" />
  <title
     id="title2">Picturing Parabolas anchor chart</title>
  <defs
     id="defs43">
    <marker
       id="marker3162"
       overflow="visible"
       orient="auto">
      <path
         transform="scale(.8) translate(7.4 1)"
         d="m-2.5-1c0 2.76-2.24 5-5 5s-5-2.24-5-5 2.24-5 5-5 5 2.24 5 5z"
         fill-rule="evenodd"
         stroke="#000"
         stroke-width="1pt"
         id="path4" />
    </marker>
    <marker
       id="marker2890"
       overflow="visible"
       orient="auto">
      <path
         transform="scale(.8) translate(7.4 1)"
         d="m-2.5-1c0 2.76-2.24 5-5 5s-5-2.24-5-5 2.24-5 5-5 5 2.24 5 5z"
         fill-rule="evenodd"
         stroke="#000"
         stroke-width="1pt"
         id="path7" />
    </marker>
    <marker
       id="marker2868"
       overflow="visible"
       orient="auto">
      <path
         transform="scale(.8) translate(7.4 1)"
         d="m-2.5-1c0 2.76-2.24 5-5 5s-5-2.24-5-5 2.24-5 5-5 5 2.24 5 5z"
         fill-rule="evenodd"
         stroke="#000"
         stroke-width="1pt"
         id="path10" />
    </marker>
    <marker
       id="marker2560"
       overflow="visible"
       orient="auto">
      <path
         transform="scale(.8) translate(7.4 1)"
         d="m-2.5-1c0 2.76-2.24 5-5 5s-5-2.24-5-5 2.24-5 5-5 5 2.24 5 5z"
         fill-rule="evenodd"
         stroke="#000"
         stroke-width="1pt"
         id="path13" />
    </marker>
    <marker
       id="marker2472"
       overflow="visible"
       orient="auto">
      <path
         transform="scale(.8) translate(7.4 1)"
         d="m-2.5-1c0 2.76-2.24 5-5 5s-5-2.24-5-5 2.24-5 5-5 5 2.24 5 5z"
         fill-rule="evenodd"
         stroke="#000"
         stroke-width="1pt"
         id="path16" />
    </marker>
    <marker
       id="marker2066"
       overflow="visible"
       orient="auto">
      <path
         transform="scale(.8) translate(7.4 1)"
         d="m-2.5-1c0 2.76-2.24 5-5 5s-5-2.24-5-5 2.24-5 5-5 5 2.24 5 5z"
         fill-rule="evenodd"
         stroke="#000"
         stroke-width="1pt"
         id="path19" />
    </marker>
    <marker
       id="marker1904"
       overflow="visible"
       orient="auto">
      <path
         transform="scale(.8) translate(7.4 1)"
         d="m-2.5-1c0 2.76-2.24 5-5 5s-5-2.24-5-5 2.24-5 5-5 5 2.24 5 5z"
         fill-rule="evenodd"
         stroke="#000"
         stroke-width="1pt"
         id="path22" />
    </marker>
    <marker
       id="marker1496"
       overflow="visible"
       orient="auto">
      <path
         transform="scale(.8) translate(7.4 1)"
         d="m-2.5-1c0 2.76-2.24 5-5 5s-5-2.24-5-5 2.24-5 5-5 5 2.24 5 5z"
         fill-rule="evenodd"
         stroke="#000"
         stroke-width="1pt"
         id="path25" />
    </marker>
    <marker
       id="marker1390"
       overflow="visible"
       orient="auto">
      <path
         transform="scale(.8) translate(7.4 1)"
         d="m-2.5-1c0 2.76-2.24 5-5 5s-5-2.24-5-5 2.24-5 5-5 5 2.24 5 5z"
         fill-rule="evenodd"
         stroke="#000"
         stroke-width="1pt"
         id="path28" />
    </marker>
    <marker
       id="DotL"
       overflow="visible"
       orient="auto">
      <path
         transform="scale(.8) translate(7.4 1)"
         d="m-2.5-1c0 2.76-2.24 5-5 5s-5-2.24-5-5 2.24-5 5-5 5 2.24 5 5z"
         fill-rule="evenodd"
         stroke="#000"
         stroke-width="1pt"
         id="path31" />
    </marker>
    <marker
       id="marker1585"
       overflow="visible"
       orient="auto">
      <path
         transform="scale(1.1) rotate(180) translate(1)"
         d="m8.7186 4.0337-10.926-4.0177 10.926-4.0177c-1.7455 2.3721-1.7354 5.6175-6e-7 8.0354z"
         fill-rule="evenodd"
         stroke="#000"
         stroke-linejoin="round"
         stroke-width=".625"
         id="path34" />
    </marker>
    <marker
       id="marker1575"
       overflow="visible"
       orient="auto">
      <path
         transform="scale(1.1) rotate(180) translate(1)"
         d="m8.7186 4.0337-10.926-4.0177 10.926-4.0177c-1.7455 2.3721-1.7354 5.6175-6e-7 8.0354z"
         fill-rule="evenodd"
         stroke="#000"
         stroke-linejoin="round"
         stroke-width=".625"
         id="path37" />
    </marker>
    <clipPath
       id="img-105d36e1-4">
      <path
         d="m19.07 5h117.35v75.72h-117.35"
         id="path40" />
    </clipPath>
  </defs>
  <metadata
     id="metadata45">
    <rdf:RDF>
      <cc:Work
         rdf:about="">
        <dc:format>image/svg+xml</dc:format>
        <dc:type
           rdf:resource="http://purl.org/dc/dcmitype/StillImage" />
        <dc:title>Picturing Parabolas anchor chart</dc:title>
      </cc:Work>
    </rdf:RDF>
  </metadata>
  <g
     transform="translate(48.623 -.61161)"
     id="g203">
    <g
       transform="matrix(1.2934 0 0 1.2934 2.951 80.595)"
       font-size="3.88px"
       stroke-width=".3"
       id="g197">
      <g
         class="plotroot xscalable yscalable"
         id="g195">
        <g
           fill="#564a55"
           font-family="'PT Sans', 'Helvetica Neue', Helvetica, sans-serif"
           font-size="3.88px"
           stroke="#000"
           stroke-opacity="0"
           id="g55">
          <g
             transform="translate(77.75,88.39)"
             id="g53">
            <g
               class="primitive"
               id="g51">
              <text
                 dy="0.60000002em"
                 font-size="4.2333px"
                 text-anchor="middle"
                 id="text49"><tspan
                   font-family="'Josefin Slab'"
                   font-size="4.2333px"
                   font-style="italic"
                   id="tspan47">x</tspan></text>
            </g>
          </g>
        </g>
        <g
           class="guide xlabels"
           fill="#6c606b"
           font-family="'PT Sans Caption', 'Helvetica Neue', Helvetica, sans-serif"
           font-size="2.82px"
           id="g81">
          <g
             transform="translate(21.07,81.72)"
             id="g61">
            <g
               class="primitive"
               id="g59">
              <text
                 dy="0.60000002em"
                 text-anchor="middle"
                 id="text57">0</text>
            </g>
          </g>
          <g
             transform="translate(58.85,81.72)"
             id="g67">
            <g
               class="primitive"
               id="g65">
              <text
                 dy="0.60000002em"
                 text-anchor="middle"
                 id="text63">10</text>
            </g>
          </g>
          <g
             transform="translate(96.64,81.72)"
             id="g73">
            <g
               class="primitive"
               id="g71">
              <text
                 dy="0.60000002em"
                 text-anchor="middle"
                 id="text69">20</text>
            </g>
          </g>
          <g
             transform="translate(134.42,81.72)"
             id="g79">
            <g
               class="primitive"
               id="g77">
              <text
                 dy="0.60000002em"
                 text-anchor="middle"
                 id="text75">30</text>
            </g>
          </g>
        </g>
        <g
           clip-path="url(#img-105d36e1-4)"
           id="g145">
          <g
             class="guide background"
             fill-opacity="0"
             pointer-events="visible"
             stroke="#000"
             stroke-opacity="0"
             stroke-width=".3"
             id="g87">
            <g
               transform="translate(77.75,42.86)"
               id="g85">
              <path
                 class="primitive"
                 d="m-58.67-37.86h117.34v75.72h-117.34z"
                 id="path83" />
            </g>
          </g>
          <g
             class="guide ygridlines xfixed"
             stroke="#d0d0e0"
             stroke-dasharray="0.5, 0.5"
             stroke-width=".2"
             id="g113">
            <g
               transform="translate(77.75,78.71)"
               id="g91">
              <path
                 class="primitive"
                 d="m-58.67 0h117.34"
                 fill="none"
                 id="path89" />
            </g>
            <g
               transform="translate(77.75,64.37)"
               id="g95">
              <path
                 class="primitive"
                 d="m-58.67 0h117.34"
                 fill="none"
                 id="path93" />
            </g>
            <g
               transform="translate(77.75,50.03)"
               id="g99">
              <path
                 class="primitive"
                 d="m-58.67 0h117.34"
                 fill="none"
                 id="path97" />
            </g>
            <g
               transform="translate(77.75,35.69)"
               id="g103">
              <path
                 class="primitive"
                 d="m-58.67 0h117.34"
                 fill="none"
                 id="path101" />
            </g>
            <g
               transform="translate(77.75,21.34)"
               id="g107">
              <path
                 class="primitive"
                 d="m-58.67 0h117.34"
                 fill="none"
                 id="path105" />
            </g>
            <g
               transform="translate(77.75,7)"
               id="g111">
              <path
                 class="primitive"
                 d="m-58.67 0h117.34"
                 fill="none"
                 id="path109" />
            </g>
          </g>
          <g
             class="guide xgridlines yfixed"
             stroke="#d0d0e0"
             stroke-dasharray="0.5, 0.5"
             stroke-width=".2"
             id="g131">
            <g
               transform="translate(21.07,42.86)"
               id="g117">
              <path
                 class="primitive"
                 d="m0-37.86v75.72"
                 fill="none"
                 id="path115" />
            </g>
            <g
               transform="translate(58.85,42.86)"
               id="g121">
              <path
                 class="primitive"
                 d="m0-37.86v75.72"
                 fill="none"
                 id="path119" />
            </g>
            <g
               transform="translate(96.64,42.86)"
               id="g125">
              <path
                 class="primitive"
                 d="m0-37.86v75.72"
                 fill="none"
                 id="path123" />
            </g>
            <g
               transform="translate(134.42,42.86)"
               id="g129">
              <path
                 class="primitive"
                 d="m0-37.86v75.72"
                 fill="none"
                 id="path127" />
            </g>
          </g>
          <g
             class="plotpanel"
             id="g143">
            <metadata
               id="metadata133">
              <boundingbox
                 value="19.07166666666666mm 5.0mm 117.34968957064285mm 75.715mm" />
              <unitbox
                 value="-0.529335371162232 41.39440842222687 31.058670742324466 -52.78881684445375" />
            </metadata>
            <g
               class="geometry"
               fill-opacity="0"
               stroke-width=".3"
               id="g141">
              <g
                 class="color_LCHab{Float32}(70.0f0,60.0f0,240.0f0)"
                 stroke="#00bfff"
                 id="g139">
                <g
                   transform="translate(77.75,49.86)"
                   id="g137">
                  <path
                     class="primitive"
                     d="m-56.67-42.86 0.45 1.04 0.46 1.02 0.45 1.02 0.46 1 0.45 1 0.46 0.99 0.45 0.99 0.46 0.97 0.45 0.97 0.46 0.96 0.45 0.95 0.46 0.94 0.45 0.93 0.46 0.92 0.45 0.92 0.46 0.91 0.45 0.9 0.46 0.89 0.45 0.88 0.46 0.88 0.45 0.86 0.46 0.86 0.46 0.85 0.45 0.84 0.46 0.83 0.45 0.83 0.46 0.81 0.45 0.81 0.46 0.8 0.45 0.79 0.46 0.78 0.45 0.78 0.46 0.77 0.45 0.75 0.46 0.75 0.45 0.74 0.46 0.74 0.45 0.72 0.46 0.72 0.45 0.71 0.46 0.69 0.45 0.7 0.46 0.68 0.45 0.67 0.46 0.67 0.46 0.66 0.45 0.65 0.46 0.64 0.45 0.63 0.46 0.63 0.45 0.61 0.46 0.61 0.45 0.6 0.46 0.59 0.45 0.58 0.46 0.58 0.45 0.56 0.46 0.56 0.45 0.55 0.46 0.54 0.45 0.54 0.46 0.52 0.45 0.52 0.46 0.51 0.45 0.5 0.46 0.49 0.45 0.48 0.92 0.94 0.45 0.46 0.46 0.45 0.45 0.44 0.46 0.43 0.45 0.43 0.46 0.41 0.45 0.41 0.46 0.4 0.45 0.39 0.46 0.39 0.45 0.37 0.46 0.37 0.45 0.36 0.46 0.35 0.45 0.34 0.46 0.33 0.45 0.33 0.46 0.31 0.45 0.31 0.46 0.3 0.45 0.29 0.92 0.56 0.45 0.27 0.46 0.25 0.45 0.25 0.46 0.25 0.45 0.23 0.46 0.22 0.45 0.22 0.46 0.21 0.45 0.2 0.46 0.19 0.45 0.18 0.46 0.18 0.45 0.16 0.46 0.16 0.45 0.15 0.46 0.14 0.45 0.14 0.46 0.12 0.45 0.12 0.46 0.11 0.45 0.1 0.46 0.09 0.46 0.08 0.45 0.08 0.46 0.06 0.45 0.06 0.46 0.05 0.45 0.04 0.46 0.04 0.45 0.02 0.46 0.02 0.45 0.01h0.46l0.45-0.01 0.46-0.02 0.45-0.02 0.46-0.04 0.45-0.04 0.46-0.05 0.45-0.06 0.46-0.06 0.45-0.08 0.46-0.08 0.46-0.09 0.45-0.1 0.46-0.11 0.45-0.12 0.46-0.12 0.45-0.14 0.46-0.14 0.45-0.15 0.46-0.16 0.45-0.16 0.46-0.18 0.45-0.18 0.46-0.19 0.45-0.2 0.46-0.21 0.45-0.22 0.46-0.22 0.45-0.23 0.46-0.25 0.45-0.25 0.46-0.25 0.45-0.27 0.92-0.56 0.45-0.29 0.46-0.3 0.45-0.31 0.46-0.31 0.45-0.33 0.46-0.33 0.45-0.34 0.46-0.35 0.45-0.36 0.46-0.37 0.45-0.37 0.46-0.39 0.45-0.39 0.46-0.4 0.45-0.41 0.46-0.41 0.45-0.43 0.46-0.43 0.45-0.44 0.46-0.45 0.45-0.46 0.92-0.94 0.45-0.48 0.46-0.49 0.45-0.5 0.46-0.51 0.45-0.52 0.46-0.52 0.45-0.54 0.46-0.54 0.45-0.55 0.46-0.56 0.45-0.56 0.46-0.58 0.45-0.58 0.46-0.59 0.45-0.6 0.46-0.61 0.45-0.61 0.46-0.63 0.45-0.63 0.46-0.64 0.45-0.65 0.46-0.66 0.46-0.67 0.45-0.67 0.46-0.68 0.45-0.7 0.46-0.69 0.45-0.71 0.46-0.72 0.45-0.72 0.46-0.74 0.45-0.74 0.46-0.75 0.45-0.75 0.46-0.77 0.45-0.78 0.46-0.78 0.45-0.79 0.46-0.8 0.45-0.81 0.46-0.81 0.45-0.83 0.46-0.83 0.45-0.84 0.46-0.85 0.46-0.86 0.45-0.86 0.46-0.88 0.45-0.88 0.46-0.89 0.45-0.9 0.46-0.91 0.45-0.92 0.46-0.92 0.45-0.93 0.46-0.94 0.45-0.95 0.46-0.96 0.45-0.97 0.46-0.97 0.45-0.99 0.46-0.99 0.45-1 0.46-1 0.45-1.02 0.46-1.02 0.45-1.04"
                     fill="none"
                     id="path135" />
                </g>
              </g>
            </g>
          </g>
        </g>
        <g
           class="guide ylabels"
           fill="#6c606b"
           font-family="'PT Sans Caption', 'Helvetica Neue', Helvetica, sans-serif"
           font-size="2.82px"
           id="g183">
          <g
             transform="translate(18.07,78.71)"
             id="g151">
            <g
               class="primitive"
               id="g149">
              <text
                 dy="0.34999999em"
                 text-anchor="end"
                 id="text147">-10</text>
            </g>
          </g>
          <g
             transform="translate(18.07,64.37)"
             id="g157">
            <g
               class="primitive"
               id="g155">
              <text
                 dy="0.34999999em"
                 text-anchor="end"
                 id="text153">0</text>
            </g>
          </g>
          <g
             transform="translate(18.07,50.03)"
             id="g163">
            <g
               class="primitive"
               id="g161">
              <text
                 dy="0.34999999em"
                 text-anchor="end"
                 id="text159">10</text>
            </g>
          </g>
          <g
             transform="translate(18.07,35.69)"
             id="g169">
            <g
               class="primitive"
               id="g167">
              <text
                 dy="0.34999999em"
                 text-anchor="end"
                 id="text165">20</text>
            </g>
          </g>
          <g
             transform="translate(18.07,21.34)"
             id="g175">
            <g
               class="primitive"
               id="g173">
              <text
                 dy="0.34999999em"
                 text-anchor="end"
                 id="text171">30</text>
            </g>
          </g>
          <g
             transform="translate(18.07,7)"
             id="g181">
            <g
               class="primitive"
               id="g179">
              <text
                 dy="0.34999999em"
                 text-anchor="end"
                 id="text177">40</text>
            </g>
          </g>
        </g>
        <g
           fill="#564a55"
           font-family="'PT Sans', 'Helvetica Neue', Helvetica, sans-serif"
           font-size="3.88px"
           stroke="#000"
           stroke-opacity="0"
           id="g193">
          <g
             transform="translate(8.81,40.86)"
             id="g191">
            <g
               class="primitive"
               id="g189">
              <text
                 transform="rotate(-90,0,2)"
                 font-size="4.2333px"
                 text-anchor="middle"
                 id="text187"><tspan
                   font-family="'Josefin SLab'"
                   font-size="4.2333px"
                   font-style="italic"
                   id="tspan185">y</tspan></text>
            </g>
          </g>
        </g>
      </g>
    </g>
    <path
       d="m27.628 163.85h151.76"
       fill="none"
       marker-end="url(#marker1575)"
       stroke="#000"
       stroke-width=".265"
       id="path199" />
    <path
       d="m30.202 185v-97.933"
       fill="none"
       marker-end="url(#marker1585)"
       stroke="#000"
       stroke-width=".26458px"
       id="path201" />
  </g>
  <g
     id="g211">
    <path
       d="m176.9 192.96-25.219-20.795"
       fill="none"
       marker-end="url(#DotL)"
       stroke="#000"
       stroke-width=".26458px"
       id="path205" />
    <rect
       x="161.47"
       y="192.96"
       width="50"
       height="16"
       fill="#fff"
       stroke="#000"
       stroke-width=".35278"
       id="rect207" />
    <path
       d="m151.68 172.17h-73.088"
       fill="none"
       stroke="#f7528e"
       stroke-dasharray="2.11667, 2.11667"
       stroke-width=".35278"
       id="path209" />
  </g>
  <g
     id="g219">
    <rect
       x="9.7858"
       y="164.83"
       width="50"
       height="16"
       fill="#fff"
       stroke="#0a0004"
       stroke-width=".35278"
       id="rect213" />
    <path
       d="m59.786 172.45 18.807-0.28361"
       fill="none"
       marker-end="url(#marker1390)"
       stroke="#000"
       stroke-width=".265"
       id="path215" />
    <rect
       x="142.05"
       y="133.55"
       width="19.367"
       height="15.299"
       fill="#fff"
       stroke="#0a0004"
       stroke-width=".265"
       id="rect217" />
  </g>
  <path
     d="m151.71 148.85-0.034 14.146"
     fill="none"
     marker-end="url(#marker1496)"
     stroke="#000"
     stroke-width=".26458px"
     id="path221" />
  <path
     d="m151.68 163v9.1742"
     fill="none"
     stroke="#f7528e"
     stroke-dasharray="2.11667, 2.11667"
     stroke-width=".35278"
     id="path223" />
  <ellipse
     cx="53.363"
     cy="22.018"
     rx="40"
     ry="12"
     fill="#fff"
     stroke="#808080"
     stroke-width=".70556"
     id="ellipse233" />
  <g
     stroke-width=".26458"
     aria-label="y = a(x − h)2+k"
     id="g257">
    <path
       d="m28.076 25.953-0.03528 0.27517h1.3617l0.03528-0.27517h-0.45861q0.62089-0.97367 1.2277-1.9262 0.61383-0.95956 1.2418-1.9332h0.508l0.04233-0.27517h-1.2347l-0.03528 0.27517h0.40922q-0.34572 0.53622-0.69144 1.0654-0.33867 0.52917-0.635 1.0442-0.16933-0.52917-0.35983-1.0513-0.1905-0.52211-0.38806-1.0583h0.45156l0.04233-0.27517h-1.3053l-0.04233 0.27517h0.54328q0.21167 0.60678 0.43039 1.1994t0.43039 1.1853q-0.23283 0.36689-0.47272 0.73378-0.23283 0.36689-0.47272 0.74083z"
       id="path235" />
    <path
       d="m38.024 23.512v-0.28222h-3.5701v0.28222zm0-1.3688v-0.28222h-3.5701v0.28222z"
       stroke-width=".26458"
       id="path237" />
    <path
       d="m41.298 23.138q-0.04233 0.28928 0.02822 0.53622 0.07761 0.24694 0.23989 0.43744 0.16228 0.1905 0.39511 0.29633 0.23989 0.10583 0.53622 0.10583 0.26811 0 0.50094-0.09172 0.23989-0.09172 0.41628-0.23989 0.10583-0.07761 0.18344-0.16228 0.07761-0.08467 0.11994-0.16933-0.01411 0.08467-0.02822 0.16228-0.01411 0.07761-0.02117 0.16228l-0.04233 0.28928h0.78317l0.04233-0.27517h-0.52211l0.33161-2.3707h-0.23283q-0.02822 0.15522-0.0635 0.31044-0.02822 0.15522-0.04939 0.31044-0.03528-0.11994-0.127-0.24694-0.08467-0.127-0.21872-0.22578-0.13406-0.09172-0.31044-0.14817-0.16933-0.05644-0.381-0.05644-0.28928 0-0.55739 0.11289-0.26811 0.10583-0.47978 0.28928-0.21872 0.1905-0.35983 0.4445t-0.18344 0.52917zm0.28928 0q0.03528-0.22578 0.14111-0.42333 0.11289-0.20461 0.28222-0.35278 0.16933-0.14817 0.381-0.23283 0.21167-0.08467 0.4445-0.08467 0.23283 0 0.42333 0.08467t0.3175 0.23283q0.127 0.14817 0.18344 0.35278 0.05644 0.19756 0.02822 0.42333-0.03528 0.23283-0.14817 0.43039-0.11289 0.19756-0.28222 0.33867-0.16933 0.15522-0.38806 0.23989-0.21167 0.08467-0.43744 0.08467t-0.40922-0.07761q-0.17639-0.07761-0.30339-0.21872-0.14111-0.14817-0.20461-0.35278-0.05644-0.20461-0.02822-0.4445z"
       id="path239" />
    <path
       d="m46.985 25.452q-0.20461-0.23283-0.40217-0.55033-0.1905-0.3175-0.34572-0.70556-0.15522-0.38806-0.24694-0.83961-0.09172-0.45156-0.09172-0.9525 0-0.50094 0.09172-0.9525t0.24694-0.83961q0.15522-0.38806 0.34572-0.70556 0.19756-0.3175 0.40217-0.55033-0.05644-0.04233-0.11289-0.07761-0.04939-0.04233-0.10583-0.08467-0.22578 0.23283-0.43744 0.5715-0.20461 0.33161-0.36689 0.74083-0.16228 0.40922-0.26106 0.889-0.09878 0.47978-0.09878 1.0089t0.09878 1.0089 0.26106 0.889q0.16228 0.40922 0.36689 0.74083 0.21167 0.33867 0.43744 0.5715 0.05644-0.04233 0.10583-0.08467 0.05644-0.03528 0.11289-0.07761z"
       stroke-width=".26458"
       id="path241" />
    <path
       d="m48.135 21.819-0.04233 0.27517h0.5715q0.14817 0.26106 0.29633 0.508 0.15522 0.24694 0.30339 0.50094-0.23989 0.27517-0.47272 0.54328-0.23283 0.26811-0.46567 0.54328h-0.52211l-0.03528 0.27517h1.2982l0.03528-0.27517h-0.41628q0.17639-0.21167 0.35983-0.41628 0.18344-0.21167 0.35983-0.43039 0.127 0.21167 0.24694 0.42333 0.127 0.20461 0.254 0.42333h-0.40922l-0.03528 0.27517h1.3617l0.03528-0.27517h-0.59267q-0.14817-0.254-0.29633-0.50094-0.14817-0.24694-0.29633-0.50094l0.93839-1.0936h0.53622l0.04233-0.27517h-1.2982l-0.03528 0.27517h0.40922l-0.74083 0.86783-0.508-0.86783h0.43744l0.04233-0.27517z"
       id="path243" />
    <path
       d="m56.305 23.138v-0.28222h-2.54v0.28222z"
       stroke-width=".26458"
       id="path245" />
    <path
       d="m61.272 24.189-0.03528 0.27517h1.3617l0.03528-0.27517h-0.52211l0.23283-1.6369q0.03528-0.35278-0.16228-0.5715-0.19756-0.21872-0.58561-0.21872-0.40217 0.0071-0.73378 0.20461-0.33161 0.19756-0.52917 0.53622l0.07056-0.3175 0.42333-3.0127h-0.81139l-0.04233 0.27517h0.52211l-0.66322 4.7413h-0.55033l-0.03528 0.27517h1.3617l0.03528-0.27517h-0.52212l0.16228-1.1712q0.02822-0.21167 0.14111-0.38806 0.11994-0.17639 0.28222-0.31044 0.16933-0.127 0.37394-0.19756 0.21167-0.07055 0.42333-0.07055 0.29633 0.01411 0.42333 0.18344 0.13406 0.16228 0.11289 0.39511l-0.21872 1.5593z"
       id="path247" />
    <path
       d="m64.546 24.316q0.16228-0.40922 0.26106-0.889 0.09878-0.47978 0.09878-1.0089t-0.09878-1.0089q-0.09878-0.47978-0.26106-0.889-0.16228-0.40922-0.37394-0.74083-0.21167-0.33867-0.43039-0.5715-0.05645 0.04233-0.11289 0.08467-0.04939 0.03528-0.09878 0.07761 0.20461 0.23283 0.39511 0.55033 0.19756 0.3175 0.35278 0.70556 0.15522 0.38806 0.24694 0.83961 0.09172 0.45156 0.09172 0.9525 0 0.50094-0.09172 0.9525t-0.24694 0.83961q-0.15522 0.38806-0.35278 0.70556-0.1905 0.3175-0.39511 0.55033 0.04939 0.04233 0.09878 0.07761 0.05644 0.04233 0.11289 0.08467 0.21872-0.23283 0.43039-0.5715 0.21167-0.33161 0.37394-0.74083z"
       stroke-width=".26458"
       id="path249" />
    <path
       d="m67.81 21.642v-0.66499h-0.17886v0.48154h-1.2612q0.21555-0.23389 0.43568-0.46778 0.22472-0.23389 0.40358-0.47237 0.17886-0.23848 0.29351-0.48154 0.11465-0.24765 0.11465-0.49989 0-0.19262-0.06421-0.35772-0.05962-0.1651-0.17427-0.28892-0.11465-0.12383-0.27058-0.19262-0.15593-0.07338-0.34854-0.07338-0.21096 0-0.37606 0.07338-0.1651 0.06879-0.27058 0.18803-0.11465 0.12383-0.16969 0.28434-0.05503 0.16051-0.05503 0.34396 0 0.20638 0.06879 0.3623 0.06879 0.15134 0.18803 0.25682l0.11465-0.11007q-0.09172-0.1009-0.13758-0.22472-0.04586-0.12382-0.04586-0.28434 0-0.10089 0.02752-0.22013 0.0321-0.12382 0.11007-0.23389 0.07338-0.10548 0.20179-0.17886 0.133-0.07338 0.34396-0.07338 0.10089 0 0.21555 0.04128 0.11924 0.03669 0.22013 0.12841 0.1009 0.09631 0.1651 0.24765 0.06879 0.14676 0.06879 0.36689 0 0.21555-0.12841 0.45861t-0.33937 0.49989q-0.21096 0.26141-0.48613 0.53658-0.27517 0.27058-0.56409 0.55492z"
       baseline-shift="super"
       id="path251" />
    <path
       d="m70.004 24.105v-1.1289h1.1218v-0.28928h-1.1218v-1.1218h-0.29633v1.1218h-1.1218v0.28928h1.1218v1.1289z"
       stroke-width=".26458"
       id="path253" />
    <path
       d="m73.843 24.189-0.03528 0.27517h1.3053l0.03528-0.27517h-0.61383q-0.19756-0.33161-0.39511-0.65617-0.1905-0.33161-0.381-0.67028 0.23989-0.20461 0.4445-0.37394 0.20461-0.17639 0.45861-0.39511h0.508l0.04233-0.27517h-1.3053l-0.04233 0.27517h0.43039l-1.2418 1.0301 0.55739-3.9511h-0.79022l-0.03528 0.27517h0.49389l-0.67028 4.7413h-0.51506l-0.03528 0.27517h1.3617l0.03528-0.27517h-0.55739l0.10583-0.70556 0.508-0.43039q0.16228 0.28928 0.33161 0.5715 0.16933 0.27517 0.34572 0.56444z"
       id="path255" />
  </g>
  <g
     fill="#fff"
     id="g269">
    <ellipse
       cx="54.587"
       cy="56.269"
       rx="40"
       ry="12"
       stroke="#808080"
       stroke-width=".70556"
       id="ellipse259" />
    <rect
       x="114.98"
       y="14.067"
       width="50"
       height="16"
       stroke="#000"
       stroke-width=".35278"
       id="rect261" />
    <rect
       x="115.29"
       y="49.235"
       width="50"
       height="16"
       stroke="#000"
       stroke-width=".35278"
       id="rect263" />
    <ellipse
       cx="225.53"
       cy="22.324"
       rx="40"
       ry="12"
       stroke="#808080"
       stroke-width=".70556"
       id="ellipse265" />
    <ellipse
       cx="226.45"
       cy="58.409"
       rx="40"
       ry="12"
       stroke="#808080"
       stroke-width=".70556"
       id="ellipse267" />
  </g>
  <g
     stroke-width=".26458"
     id="g355">
    <g
       aria-label="y = ax2 + bx + c"
       id="g291">
      <path
         d="m29.586 60.815-0.03528 0.27517h1.3617l0.03528-0.27517h-0.45861q0.62089-0.97367 1.2277-1.9262 0.61383-0.95956 1.2418-1.9332h0.508l0.04233-0.27517h-1.2347l-0.03528 0.27517h0.40922q-0.34572 0.53622-0.69144 1.0654-0.33867 0.52917-0.635 1.0442-0.16933-0.52917-0.35983-1.0513-0.1905-0.52211-0.38806-1.0583h0.45156l0.04233-0.27517h-1.3053l-0.04233 0.27517h0.54328q0.21167 0.60678 0.43039 1.1994t0.43039 1.1853q-0.23283 0.36689-0.47272 0.73378-0.23283 0.36689-0.47272 0.74083z"
         id="path271" />
      <path
         d="m39.535 58.374v-0.28222h-3.5701v0.28222zm0-1.3688v-0.28222h-3.5701v0.28222z"
         stroke-width=".26458"
         id="path273" />
      <path
         d="m42.808 58q-0.04233 0.28928 0.02822 0.53622 0.07761 0.24694 0.23989 0.43744 0.16228 0.1905 0.39511 0.29633 0.23989 0.10583 0.53622 0.10583 0.26811 0 0.50094-0.09172 0.23989-0.09172 0.41628-0.23989 0.10583-0.07761 0.18344-0.16228 0.07761-0.08467 0.11994-0.16933-0.01411 0.08467-0.02822 0.16228-0.01411 0.07761-0.02117 0.16228l-0.04233 0.28928h0.78317l0.04233-0.27517h-0.52211l0.33161-2.3707h-0.23283q-0.02822 0.15522-0.0635 0.31044-0.02822 0.15522-0.04939 0.31044-0.03528-0.11994-0.127-0.24694-0.08467-0.127-0.21872-0.22578-0.13406-0.09172-0.31044-0.14817-0.16933-0.05645-0.381-0.05645-0.28928 0-0.55739 0.11289-0.26811 0.10583-0.47978 0.28928-0.21872 0.1905-0.35983 0.4445t-0.18344 0.52917zm0.28928 0q0.03528-0.22578 0.14111-0.42333 0.11289-0.20461 0.28222-0.35278 0.16933-0.14817 0.381-0.23283 0.21167-0.08467 0.4445-0.08467 0.23283 0 0.42333 0.08467t0.3175 0.23283q0.127 0.14817 0.18344 0.35278 0.05644 0.19756 0.02822 0.42333-0.03528 0.23283-0.14817 0.43039-0.11289 0.19756-0.28222 0.33867-0.16933 0.15522-0.38806 0.23989-0.21167 0.08467-0.43744 0.08467-0.22578 0-0.40922-0.07761-0.17639-0.07761-0.30339-0.21872-0.14111-0.14817-0.20461-0.35278-0.05645-0.20461-0.02822-0.4445z"
         id="path275" />
      <path
         d="m46.781 56.681-0.04233 0.27517h0.5715q0.14817 0.26106 0.29633 0.508 0.15522 0.24694 0.30339 0.50094-0.23989 0.27517-0.47272 0.54328-0.23283 0.26811-0.46567 0.54328h-0.52211l-0.03528 0.27517h1.2982l0.03528-0.27517h-0.41628q0.17639-0.21167 0.35983-0.41628 0.18344-0.21167 0.35983-0.43039 0.127 0.21167 0.24694 0.42333 0.127 0.20461 0.254 0.42333h-0.40922l-0.03528 0.27517h1.3617l0.03528-0.27517h-0.59267q-0.14817-0.254-0.29633-0.50094-0.14817-0.24694-0.29633-0.50094l0.93839-1.0936h0.53622l0.04233-0.27517h-1.2982l-0.03528 0.27517h0.40922l-0.74083 0.86783-0.508-0.86783h0.43744l0.04233-0.27517z"
         id="path277" />
      <path
         d="m51.858 56.504v-0.66499h-0.17886v0.48154h-1.2612q0.21555-0.23389 0.43568-0.46778 0.22472-0.23389 0.40358-0.47237 0.17886-0.23848 0.29351-0.48154 0.11465-0.24765 0.11465-0.49989 0-0.19262-0.06421-0.35772-0.05962-0.1651-0.17427-0.28892-0.11465-0.12382-0.27058-0.19262-0.15593-0.07338-0.34854-0.07338-0.21096 0-0.37606 0.07338-0.1651 0.06879-0.27058 0.18803-0.11465 0.12382-0.16969 0.28434-0.05503 0.16051-0.05503 0.34396 0 0.20638 0.06879 0.3623 0.06879 0.15134 0.18803 0.25682l0.11465-0.11007q-0.09172-0.10089-0.13758-0.22472-0.04586-0.12382-0.04586-0.28434 0-0.1009 0.02752-0.22013 0.0321-0.12382 0.11007-0.23389 0.07338-0.10548 0.20179-0.17886 0.133-0.07338 0.34396-0.07338 0.1009 0 0.21555 0.04127 0.11924 0.03669 0.22013 0.12841 0.1009 0.09631 0.1651 0.24765 0.06879 0.14676 0.06879 0.36689 0 0.21555-0.12841 0.45861-0.12841 0.24306-0.33937 0.49989-0.21096 0.26141-0.48613 0.53658-0.27517 0.27058-0.56409 0.55492z"
         baseline-shift="super"
         id="path279" />
      <path
         d="m55.428 58.967v-1.1289h1.1218v-0.28928h-1.1218v-1.1218h-0.29633v1.1218h-1.1218v0.28928h1.1218v1.1289z"
         stroke-width=".26458"
         id="path281" />
      <path
         d="m60.388 59.327 0.03528-0.26811q0.01411-0.08467 0.02117-0.16933 0.01411-0.08467 0.02117-0.17639 0.07056 0.24694 0.33867 0.45861 0.27517 0.20461 0.70556 0.20461 0.28928 0 0.55739-0.10583 0.26811-0.10583 0.47978-0.29633t0.35278-0.43744q0.14817-0.24694 0.1905-0.53622 0.04233-0.28222-0.03528-0.53622-0.07056-0.254-0.23283-0.43744-0.16228-0.18344-0.40217-0.28928-0.23989-0.11289-0.52211-0.11289-0.40922 0-0.72672 0.1905-0.31044 0.18344-0.47272 0.45861 0.01411-0.07761 0.02822-0.16228 0.01411-0.09172 0.02117-0.18344l0.40922-2.8928h-0.78317l-0.04233 0.27517h0.50094l-0.67028 4.7413h-0.52212l-0.04233 0.27517zm2.4059-1.3264q-0.02822 0.23283-0.14111 0.43039-0.11289 0.19756-0.28222 0.33867-0.16933 0.15522-0.381 0.23989-0.21167 0.08467-0.4445 0.08467-0.21872 0-0.40217-0.07761-0.17639-0.07761-0.30339-0.21167-0.14111-0.14817-0.20461-0.35278-0.0635-0.21167-0.03528-0.45156 0.02822-0.22578 0.14111-0.42333 0.11994-0.20461 0.28928-0.35278 0.16933-0.14817 0.37394-0.23283 0.21167-0.08467 0.45156-0.08467 0.22578 0 0.40922 0.08467 0.1905 0.07761 0.3175 0.21872 0.127 0.15522 0.18344 0.35983 0.0635 0.19756 0.02822 0.43039z"
         id="path283" />
      <path
         d="m63.761 56.681-0.04233 0.27517h0.5715q0.14817 0.26106 0.29633 0.508 0.15522 0.24694 0.30339 0.50094-0.23989 0.27517-0.47272 0.54328-0.23283 0.26811-0.46567 0.54328h-0.52211l-0.03528 0.27517h1.2982l0.03528-0.27517h-0.41628q0.17639-0.21167 0.35983-0.41628 0.18344-0.21167 0.35983-0.43039 0.127 0.21167 0.24694 0.42333 0.127 0.20461 0.254 0.42333h-0.40922l-0.03528 0.27517h1.3617l0.03528-0.27517h-0.59267q-0.14817-0.254-0.29633-0.50094-0.14817-0.24694-0.29633-0.50094l0.93839-1.0936h0.53622l0.04233-0.27517h-1.2982l-0.03528 0.27517h0.40922l-0.74083 0.86783-0.508-0.86783h0.43744l0.04233-0.27517z"
         id="path285" />
      <path
         d="m70.837 58.967v-1.1289h1.1218v-0.28928h-1.1218v-1.1218h-0.29633v1.1218h-1.1218v0.28928h1.1218v1.1289z"
         id="path287" />
      <path
         d="m77.307 59.073-0.15522-0.21872q-0.15522 0.11289-0.34572 0.17639-0.18344 0.0635-0.381 0.0635-0.22578 0-0.40922-0.07761-0.18344-0.07761-0.30339-0.21872-0.14111-0.14817-0.20461-0.35278-0.05644-0.20461-0.02117-0.4445 0.02822-0.22578 0.14111-0.42333 0.11289-0.20461 0.28222-0.35278 0.16933-0.14817 0.381-0.23283 0.21167-0.08467 0.4445-0.08467 0.16933 0 0.3175 0.04939t0.26811 0.14111l-0.07056 0.52211h0.26106l0.09878-0.69144q-0.15522-0.14111-0.36689-0.21872-0.21167-0.08467-0.46567-0.08467-0.29633 0-0.56444 0.11289-0.26106 0.10583-0.47272 0.28928-0.21872 0.18344-0.35983 0.43744-0.14111 0.254-0.18344 0.53622-0.04233 0.28928 0.02822 0.53622 0.07761 0.24694 0.24694 0.43744 0.15522 0.1905 0.38806 0.29633 0.23989 0.10583 0.52917 0.10583 0.254 0 0.47978-0.07761 0.23283-0.08467 0.43744-0.22578z"
         id="path289" />
    </g>
    <g
       aria-label="y = 1/5 (x − 15)2 − 5"
       id="g323">
      <path
         d="m196.73 26.565-0.0353 0.27517h1.3617l0.0353-0.27517h-0.45861q0.62089-0.97367 1.2277-1.9262 0.61383-0.95956 1.2418-1.9332h0.508l0.0423-0.27517h-1.2347l-0.0353 0.27517h0.40922q-0.34572 0.53622-0.69144 1.0654-0.33867 0.52917-0.635 1.0442-0.16934-0.52917-0.35984-1.0513-0.1905-0.52211-0.38805-1.0583h0.45155l0.0423-0.27517h-1.3053l-0.0423 0.27517h0.54328q0.21167 0.60678 0.43039 1.1994t0.43039 1.1853q-0.23283 0.36689-0.47272 0.73378-0.23284 0.36689-0.47272 0.74083z"
         id="path293" />
      <path
         d="m206.68 24.124v-0.28222h-3.5701v0.28222zm0-1.3688v-0.28222h-3.5701v0.28222z"
         stroke-width=".26458"
         id="path295" />
      <path
         d="m210.66 22.254v-0.17886h-0.36231v-2.8021h-0.62829v0.18344h0.43568v2.6187h-0.36231v0.17886z"
         baseline-shift="super"
         id="path297" />
      <path
         d="m211.14 25.21q0.49389-1.3406 0.98072-2.6599 0.48684-1.3264 0.98073-2.667h-0.28928q-0.49389 1.3406-0.98073 2.667-0.48683 1.3194-0.98072 2.6599z"
         stroke-width=".26458"
         id="path299" />
      <path
         d="m215.01 26.24q0.12842-0.12382 0.20638-0.2981 0.078-0.17427 0.078-0.37606 0-0.1972-0.078-0.36689-0.078-0.17427-0.20638-0.30268-0.13299-0.12841-0.31185-0.1972-0.17427-0.07338-0.37148-0.07338-0.0825 0-0.1651 0.01835-0.078 0.01376-0.15592 0.04586v-0.99977h0.94932v0.27517h0.17886v-0.45861h-1.3162v1.5042q0.078-0.09631 0.21097-0.14676 0.13299-0.05503 0.29351-0.05503 0.16051 0 0.30268 0.05962t0.24765 0.16051q0.10548 0.10548 0.16969 0.24306 0.0642 0.13758 0.0642 0.2981 0 0.15593-0.0642 0.2981-0.0642 0.13758-0.16969 0.24306-0.10548 0.10548-0.24765 0.16969-0.14217 0.05962-0.30268 0.05962-0.15134 0-0.28434-0.05503t-0.22931-0.15593l-0.14217 0.12841q0.133 0.12382 0.2981 0.1972 0.16969 0.06879 0.3623 0.06879 0.19721 0 0.37148-0.07338 0.17886-0.07796 0.31185-0.21096z"
         baseline-shift="sub"
         id="path301" />
      <path
         d="m220.1 26.064q-0.20462-0.23283-0.40217-0.55033-0.1905-0.3175-0.34572-0.70556-0.15523-0.38806-0.24695-0.83961-0.0917-0.45156-0.0917-0.9525t0.0917-0.9525 0.24695-0.83961q0.15522-0.38806 0.34572-0.70556 0.19755-0.3175 0.40217-0.55033-0.0564-0.04233-0.11289-0.07761-0.0494-0.04233-0.10584-0.08467-0.22578 0.23283-0.43744 0.5715-0.20461 0.33161-0.36689 0.74083-0.16228 0.40922-0.26106 0.889-0.0988 0.47978-0.0988 1.0089t0.0988 1.0089 0.26106 0.889q0.16228 0.40922 0.36689 0.74083 0.21166 0.33867 0.43744 0.5715 0.0564-0.04233 0.10584-0.08467 0.0564-0.03528 0.11289-0.07761z"
         stroke-width=".26458"
         id="path303" />
      <path
         d="m221.25 22.43-0.0423 0.27517h0.5715q0.14817 0.26106 0.29634 0.508 0.15522 0.24694 0.30339 0.50094-0.23989 0.27517-0.47272 0.54328-0.23284 0.26811-0.46567 0.54328h-0.52211l-0.0353 0.27517h1.2982l0.0353-0.27517h-0.41628q0.17639-0.21167 0.35984-0.41628 0.18344-0.21167 0.35983-0.43039 0.127 0.21167 0.24694 0.42333 0.127 0.20461 0.254 0.42333h-0.40922l-0.0353 0.27517h1.3617l0.0353-0.27517h-0.59266q-0.14817-0.254-0.29634-0.50094-0.14816-0.24694-0.29633-0.50094l0.93839-1.0936h0.53622l0.0423-0.27517h-1.2982l-0.0353 0.27517h0.40923l-0.74084 0.86783-0.508-0.86783h0.43745l0.0423-0.27517z"
         id="path305" />
      <g
         stroke-width=".26458"
         id="g315">
        <path
           d="m229.42 23.75v-0.28222h-2.54v0.28222z"
           id="path307" />
        <path
           d="m233.88 25.076v-0.27517h-0.55739v-4.3109h-0.96661v0.28222h0.67027v4.0287h-0.55739v0.27517z"
           id="path309" />
        <path
           d="m236.83 24.695q0.19755-0.1905 0.3175-0.45861 0.11994-0.26811 0.11994-0.57856 0-0.30339-0.11994-0.56444-0.11995-0.26811-0.3175-0.46567-0.20461-0.19756-0.47978-0.30339-0.26811-0.11289-0.5715-0.11289-0.127 0-0.254 0.02822-0.11995 0.02117-0.23989 0.07056v-1.5381h1.4605v0.42333h0.27517v-0.70556h-2.025v2.3142q0.11995-0.14817 0.32456-0.22578 0.20461-0.08467 0.45155-0.08467 0.24695 0 0.46567 0.09172t0.381 0.24694q0.16228 0.16228 0.26106 0.37394 0.0988 0.21167 0.0988 0.45861 0 0.23989-0.0988 0.45861-0.0988 0.21167-0.26106 0.37394-0.16228 0.16228-0.381 0.26106-0.21872 0.09172-0.46567 0.09172-0.23283 0-0.43744-0.08467t-0.35278-0.23989l-0.21872 0.19756q0.20461 0.1905 0.45861 0.30339 0.26106 0.10583 0.55739 0.10583 0.30339 0 0.5715-0.11289 0.27517-0.11994 0.47978-0.32456z"
           id="path311" />
        <path
           d="m239.52 24.928q0.16228-0.40922 0.26105-0.889 0.0988-0.47978 0.0988-1.0089t-0.0988-1.0089-0.26105-0.889q-0.16228-0.40922-0.37395-0.74083-0.21166-0.33867-0.43039-0.5715-0.0564 0.04233-0.11288 0.08467-0.0494 0.03528-0.0988 0.07761 0.20461 0.23283 0.39511 0.55033 0.19756 0.3175 0.35278 0.70556 0.15522 0.38806 0.24694 0.83961 0.0917 0.45156 0.0917 0.9525t-0.0917 0.9525q-0.0917 0.45156-0.24694 0.83961-0.15522 0.38806-0.35278 0.70556-0.1905 0.3175-0.39511 0.55033 0.0494 0.04233 0.0988 0.07761 0.0564 0.04233 0.11288 0.08467 0.21873-0.23283 0.43039-0.5715 0.21167-0.33161 0.37395-0.74083z"
           id="path313" />
      </g>
      <path
         d="m242.78 22.254v-0.66499h-0.17886v0.48154h-1.2612q0.21555-0.23389 0.43568-0.46778 0.22472-0.23389 0.40358-0.47237t0.29351-0.48154q0.11465-0.24765 0.11465-0.49989 0-0.19262-0.0642-0.35772-0.0596-0.1651-0.17428-0.28892-0.11465-0.12382-0.27058-0.19262-0.15593-0.07338-0.34854-0.07338-0.21096 0-0.37606 0.07338-0.1651 0.06879-0.27058 0.18803-0.11466 0.12382-0.16969 0.28434-0.055 0.16051-0.055 0.34396 0 0.20638 0.0688 0.3623 0.0688 0.15134 0.18803 0.25682l0.11465-0.11007q-0.0917-0.1009-0.13758-0.22472-0.0459-0.12382-0.0459-0.28434 0-0.10089 0.0275-0.22013 0.0321-0.12382 0.11007-0.23389 0.0734-0.10548 0.20179-0.17886 0.133-0.07338 0.34396-0.07338 0.10089 0 0.21554 0.04128 0.11924 0.03669 0.22014 0.12841 0.10089 0.09631 0.1651 0.24765 0.0688 0.14676 0.0688 0.36689 0 0.21555-0.12841 0.45861t-0.33937 0.49989q-0.21096 0.26141-0.48613 0.53658-0.27517 0.27058-0.56409 0.55492z"
         baseline-shift="super"
         id="path317" />
      <path
         d="m248.19 23.75v-0.28222h-2.54v0.28222z"
         stroke-width=".26458"
         id="path319" />
      <path
         d="m253.72 24.695q0.19755-0.1905 0.3175-0.45861 0.11994-0.26811 0.11994-0.57856 0-0.30339-0.11994-0.56444-0.11995-0.26811-0.3175-0.46567-0.20461-0.19756-0.47978-0.30339-0.26811-0.11289-0.5715-0.11289-0.127 0-0.254 0.02822-0.11995 0.02117-0.23989 0.07056v-1.5381h1.4605v0.42333h0.27517v-0.70556h-2.025v2.3142q0.11995-0.14817 0.32456-0.22578 0.20461-0.08467 0.45155-0.08467 0.24695 0 0.46567 0.09172t0.381 0.24694q0.16228 0.16228 0.26106 0.37394 0.0988 0.21167 0.0988 0.45861 0 0.23989-0.0988 0.45861-0.0988 0.21167-0.26106 0.37394-0.16228 0.16228-0.381 0.26106-0.21872 0.09172-0.46567 0.09172-0.23283 0-0.43744-0.08467t-0.35278-0.23989l-0.21872 0.19756q0.20461 0.1905 0.45861 0.30339 0.26106 0.10583 0.55739 0.10583 0.30339 0 0.5715-0.11289 0.27517-0.11994 0.47978-0.32456z"
         stroke-width=".26458"
         id="path321" />
    </g>
    <g
       aria-label="y = 1/5 x2 − 6x + 40"
       id="g353">
      <path
         d="m196.98 62.956-0.0353 0.27517h1.3617l0.0353-0.27517h-0.45861q0.62088-0.97367 1.2277-1.9262 0.61384-0.95956 1.2418-1.9332h0.508l0.0423-0.27517h-1.2347l-0.0353 0.27517h0.40923q-0.34573 0.53622-0.69145 1.0654-0.33866 0.52917-0.635 1.0442-0.16933-0.52917-0.35983-1.0513-0.1905-0.52211-0.38806-1.0583h0.45156l0.0423-0.27517h-1.3053l-0.0423 0.27517h0.54328q0.21166 0.60678 0.43039 1.1994 0.21872 0.59267 0.43039 1.1853-0.23284 0.36689-0.47273 0.73378-0.23283 0.36689-0.47272 0.74083z"
         id="path325" />
      <path
         d="m206.93 60.515v-0.28222h-3.5701v0.28222zm0-1.3688v-0.28222h-3.5701v0.28222z"
         stroke-width=".26458"
         id="path327" />
      <path
         d="m210.92 58.645v-0.17886h-0.3623v-2.8021h-0.6283v0.18344h0.43568v2.6187h-0.3623v0.17886z"
         baseline-shift="super"
         id="path329" />
      <path
         d="m211.39 61.601q0.49389-1.3406 0.98073-2.6599 0.48683-1.3264 0.98072-2.667h-0.28928q-0.49389 1.3406-0.98072 2.667-0.48683 1.3194-0.98072 2.6599z"
         stroke-width=".26458"
         id="path331" />
      <path
         d="m215.27 62.631q0.12841-0.12382 0.20637-0.2981 0.078-0.17427 0.078-0.37606 0-0.1972-0.078-0.36689-0.078-0.17427-0.20637-0.30268-0.133-0.12841-0.31186-0.1972-0.17427-0.07338-0.37147-0.07338-0.0825 0-0.1651 0.01835-0.078 0.01376-0.15593 0.04586v-0.99977h0.94933v0.27517h0.17885v-0.45861h-1.3162v1.5042q0.078-0.09631 0.21096-0.14676 0.133-0.05503 0.29351-0.05503 0.16052 0 0.30269 0.05962t0.24765 0.16051q0.10548 0.10548 0.16968 0.24306 0.0642 0.13758 0.0642 0.2981 0 0.15593-0.0642 0.2981-0.0642 0.13758-0.16968 0.24306t-0.24765 0.16969q-0.14217 0.05962-0.30269 0.05962-0.15134 0-0.28434-0.05503-0.13299-0.05503-0.2293-0.15593l-0.14217 0.12841q0.133 0.12382 0.2981 0.1972 0.16968 0.06879 0.3623 0.06879 0.1972 0 0.37147-0.07338 0.17886-0.07796 0.31186-0.21096z"
         baseline-shift="sub"
         id="path333" />
      <path
         d="m218.64 58.821-0.0423 0.27517h0.5715q0.14816 0.26106 0.29633 0.508 0.15522 0.24694 0.30339 0.50094-0.23989 0.27517-0.47272 0.54328-0.23284 0.26811-0.46567 0.54328h-0.52211l-0.0353 0.27517h1.2982l0.0353-0.27517h-0.41628q0.17639-0.21167 0.35984-0.41628 0.18344-0.21167 0.35983-0.43039 0.127 0.21167 0.24694 0.42333 0.127 0.20461 0.254 0.42333h-0.40922l-0.0353 0.27517h1.3617l0.0353-0.27517h-0.59267q-0.14817-0.254-0.29633-0.50094-0.14817-0.24694-0.29634-0.50094l0.93839-1.0936h0.53622l0.0423-0.27517h-1.2982l-0.0353 0.27517h0.40922l-0.74084 0.86783-0.508-0.86783h0.43745l0.0423-0.27517z"
         id="path335" />
      <path
         d="m223.72 58.645v-0.66499h-0.17886v0.48154h-1.2612q0.21554-0.23389 0.43568-0.46778 0.22472-0.23389 0.40357-0.47237 0.17886-0.23848 0.29352-0.48154 0.11465-0.24765 0.11465-0.49989 0-0.19262-0.0642-0.35772-0.0596-0.1651-0.17427-0.28892-0.11465-0.12382-0.27058-0.19262-0.15593-0.07338-0.34854-0.07338-0.21097 0-0.37607 0.07338-0.1651 0.06879-0.27058 0.18803-0.11465 0.12382-0.16968 0.28434-0.055 0.16051-0.055 0.34396 0 0.20638 0.0688 0.3623 0.0688 0.15134 0.18803 0.25682l0.11465-0.11007q-0.0917-0.1009-0.13758-0.22472-0.0459-0.12382-0.0459-0.28434 0-0.10089 0.0275-0.22013 0.0321-0.12382 0.11007-0.23389 0.0734-0.10548 0.20179-0.17886 0.13299-0.07338 0.34396-0.07338 0.10089 0 0.21554 0.04127 0.11924 0.03669 0.22014 0.12841 0.10089 0.09631 0.1651 0.24765 0.0688 0.14676 0.0688 0.36689 0 0.21555-0.12841 0.45861t-0.33938 0.49989q-0.21096 0.26141-0.48612 0.53658-0.27517 0.27058-0.5641 0.55492z"
         baseline-shift="super"
         id="path337" />
      <path
         d="m229.12 60.141v-0.28222h-2.54v0.28222z"
         stroke-width=".26458"
         id="path339" />
      <path
         d="m232.8 60.889q-0.16227-0.15522-0.254-0.36689-0.0917-0.21872-0.0917-0.45861 0-0.24694 0.0917-0.45861 0.0917-0.21872 0.254-0.381 0.15523-0.15522 0.36689-0.24694 0.21873-0.09172 0.46567-0.09172 0.23989 0 0.45861 0.09172t0.381 0.24694q0.16228 0.16228 0.254 0.381 0.0988 0.21167 0.0988 0.45861 0 0.23989-0.0988 0.45861-0.0917 0.21167-0.254 0.36689-0.16228 0.16933-0.381 0.26106-0.21872 0.09172-0.45861 0.09172-0.24694 0-0.46567-0.09172-0.21166-0.09172-0.36689-0.26106zm1.8838 0.20461q0.19755-0.19756 0.31044-0.45861 0.11995-0.26811 0.11995-0.5715t-0.11995-0.56444q-0.11289-0.26811-0.31044-0.47272-0.20461-0.19756-0.47978-0.31044-0.26811-0.11289-0.5715-0.11289-0.23283 0-0.43039 0.09878-0.1905 0.09172-0.32455 0.24694 0.0988-0.16933 0.254-0.35983 0.15522-0.19756 0.381-0.42333 0.21872-0.21872 0.508-0.45861 0.28927-0.23989 0.66322-0.48683-0.0423-0.05644-0.0917-0.11289-0.0494-0.05644-0.0917-0.11994-0.39511 0.29633-0.81139 0.62794-0.41627 0.32456-0.75494 0.70556-0.33867 0.381-0.55739 0.8255-0.21872 0.43744-0.21872 0.94544 7e-3 0.30339 0.127 0.56444 0.11994 0.26106 0.3175 0.45156 0.19755 0.1905 0.46567 0.30339 0.26811 0.11289 0.56444 0.11289 0.30339 0 0.5715-0.11289 0.27517-0.11994 0.47978-0.3175z"
         stroke-width=".26458"
         id="path341" />
      <path
         d="m236.1 58.821-0.0423 0.27517h0.5715q0.14816 0.26106 0.29633 0.508 0.15522 0.24694 0.30339 0.50094-0.23989 0.27517-0.47272 0.54328-0.23284 0.26811-0.46567 0.54328h-0.52211l-0.0353 0.27517h1.2982l0.0353-0.27517h-0.41628q0.17639-0.21167 0.35984-0.41628 0.18344-0.21167 0.35983-0.43039 0.127 0.21167 0.24695 0.42333 0.127 0.20461 0.254 0.42333h-0.40923l-0.0353 0.27517h1.3617l0.0353-0.27517h-0.59267q-0.14817-0.254-0.29633-0.50094-0.14817-0.24694-0.29634-0.50094l0.93839-1.0936h0.53622l0.0423-0.27517h-1.2982l-0.0353 0.27517h0.40922l-0.74083 0.86783-0.50801-0.86783h0.43745l0.0423-0.27517z"
         id="path343" />
      <g
         stroke-width=".26458"
         id="g351">
        <path
           d="m243.18 61.107v-1.1289h1.1218v-0.28928h-1.1218v-1.1218h-0.29633v1.1218h-1.1218v0.28928h1.1218v1.1289z"
           id="path345" />
        <path
           d="m250.53 61.467v-0.27517h-0.58561v-1.016h0.68439v-0.28222h-0.68439v-3.0692l-2.5823 3.3514h2.2931v1.016h-0.54328v0.27517zm-0.87488-3.7888v2.2154h-1.7004z"
           id="path347" />
        <path
           d="m254.18 60.861q0.26811-0.31044 0.42334-0.74083 0.16227-0.43039 0.16227-0.93839 0-0.41628-0.11288-0.83256-0.11289-0.42333-0.34573-0.762-0.23283-0.33161-0.58561-0.54328-0.35278-0.21872-0.8255-0.21872-0.47978 0-0.83961 0.21167-0.35983 0.20461-0.59267 0.53622-0.23989 0.33867-0.36689 0.75494-0.11994 0.41628-0.11994 0.83256 0 0.508 0.14817 0.93839 0.15522 0.43039 0.40922 0.74789 0.26105 0.31044 0.59972 0.49389 0.33867 0.17639 0.71967 0.17639 0.37394 0 0.71967-0.16933 0.34572-0.17639 0.60677-0.48683zm-2.4271-0.20461q-0.21872-0.27517-0.35278-0.65617-0.127-0.381-0.127-0.83961 0-0.41628 0.11289-0.78317 0.11995-0.37394 0.32456-0.66322 0.21166-0.28222 0.508-0.4445 0.29633-0.16228 0.67028-0.16228 0.37394 0 0.66322 0.17639 0.29633 0.16933 0.508 0.4445 0.19755 0.28928 0.30339 0.67028 0.11289 0.37394 0.11289 0.79022 0 0.45156-0.14111 0.83256-0.13406 0.381-0.35984 0.64911-0.22578 0.27517-0.51505 0.42333-0.28928 0.14111-0.59973 0.14111-0.31044 0-0.59972-0.14817-0.28928-0.15522-0.508-0.43039z"
           id="path349" />
      </g>
    </g>
  </g>
  <g
     fill="none"
     stroke="#000"
     id="g367">
    <path
       d="m115.29 56.953-20.731-0.23378"
       marker-end="url(#marker2868)"
       stroke-width=".265"
       id="path357" />
    <g
       stroke-width=".26458px"
       id="g365">
      <path
         d="m165.29 57.576 21.203 0.28896"
         marker-end="url(#marker2560)"
         id="path359" />
      <path
         d="m164.98 22.142 20.552 0.06169"
         marker-end="url(#marker2472)"
         id="path361" />
      <path
         d="m114.98 22.053-21.621-0.012233"
         marker-end="url(#marker2890)"
         id="path363" />
    </g>
  </g>
  <rect
     x="203.06"
     y="141.89"
     width="49.541"
     height="16.819"
     fill="#fff"
     stroke="#000"
     stroke-width=".265"
     id="rect369" />
  <path
     d="m216.52 141.89-13.157-9.7858"
     fill="none"
     marker-end="url(#marker3162)"
     stroke="#000"
     stroke-width=".265"
     id="path371" />
  <text
     xml:space="preserve"
     style="font-size:10.5833px;line-height:1.25;font-family:'Josefin Slab';-inkscape-font-specification:'Josefin Slab';stroke-width:0.264583"
     x="132.24411"
     y="20.842112"
     id="text2524"><tspan
       sodipodi:role="line"
       id="tspan2522"
       style="stroke-width:0.264583"
       x="132.24411"
       y="20.842112" /></text>
  <text
     xml:space="preserve"
     style="font-size:7.05556px;line-height:1.25;font-family:Cantarell;-inkscape-font-specification:Cantarell;text-align:center;text-anchor:middle;stroke-width:0.264583"
     x="140.81244"
     y="24.360199"
     id="text2528"><tspan
       sodipodi:role="line"
       id="tspan2526"
       style="font-size:7.05556px;stroke-width:0.264583"
       x="140.81244"
       y="24.360199">vertex form</tspan></text>
  <text
     xml:space="preserve"
     style="font-size:7.05556px;line-height:1.25;font-family:Cantarell;-inkscape-font-specification:Cantarell;text-align:center;text-anchor:middle;stroke-width:0.264583"
     x="140.35353"
     y="59.8283"
     id="text2532"><tspan
       sodipodi:role="line"
       id="tspan2530"
       style="font-size:7.05556px;stroke-width:0.264583"
       x="140.35353"
       y="59.8283">standard form</tspan></text>
</svg>
